{
	"title": "Superguide electronic tv guide",
	"description": "A nice and quick project in between, build an electronic tv guide with lots of tv and serie news.",
	"meta": [
		{
			"property": "og:image",
			"content": "/images/creations/superguide.png"
		}
	]
}
